Métodos Cuantitativos - Taller 1
…
Veamos un par de paquetes más muy útiles.

Paquete {skimr}

Vamos a instalar un paquete. Esto se puede hacer con menús

install.packages("skimr")

Cargamos el paquete

library(skimr)

skimr::skim(endireh2021_CDMX)[,20]

# A tibble: 2,263 × 1
   numeric.hist
   <chr>       
 1 <NA>        
 2 <NA>        
 3 <NA>        
 4 <NA>        
 5 <NA>        
 6 <NA>        
 7 <NA>        
 8 <NA>        
 9 <NA>        
10 <NA>        
# … with 2,253 more rows
…
